NFL Attendence - DASC blog
…
games <- games %>%
  mutate(week = as.numeric(week))

## Warning: NAs introduced by coercion

games %>%
  left_join(attendance, by = c("home_team_city" = "team", "home_team_name" = "team_name", "year", "week")) %>%
  filter(day == c("Sun", "Mon", "Thu")) %>%
  group_by(day, time) %>%
  summarize(avr_attendance = mean(weekly_attendance, na.rm = TRUE))

## Warning in day == c("Sun", "Mon", "Thu"): longer object length is not a multiple
## of shorter object length

## # A tibble: 136 x 3
## # Groups:   day [3]
##    day   time   avr_attendance
##    <chr> <time>          <dbl>
##  1 Mon   19:10          70571.
##  2 Mon   19:11          78044.
##  3 Mon   19:13          66860 
##  4 Mon   19:20          45910 
##  5 Mon   19:26          78127 
##  6 Mon   20:10          65477 
##  7 Mon   20:15          69070 
##  8 Mon   20:30          72581.
##  9 Mon   20:31          69957 
## 10 Mon   20:32          69596 
## # … with 126 more rows
…
